Chapter 1 Simple Linear Regression | R Lab for Regression Analysis
…
Figure 1.7: Mean response and its standard deviation

For example, in the Figure 1.7, the blue line indicates \(E(Y \mid X = x)\) for each point \(x\). Without fitting using lm(), geom_smooth(method = "lm") let us visualize the fitted line. Since the default method is not the linear regression, the method option should be specified.

delv %>% 
  mutate(eyx = predict(delv_fit, newdata = data.frame(x = x)))

# A tibble: 25 x 3
       y     x   eyx
   <dbl> <dbl> <dbl>
 1  16.7     7 18.6 
 2  11.5     3  9.85
 3  12.0     3  9.85
 4  14.9     4 12.0 
 5  13.8     6 16.4 
 6  18.1     7 18.6 
 7   8       2  7.67
 8  17.8     7 18.6 
 9  79.2    30 68.6 
10  21.5     5 14.2 
# … with 15 more rows
…
where \(\hat\sigma^2 = MSE\)

predict() provides options for this confidence interval. Specify interval = "confidence". This argument has three option.

"none": just compute fitted value, by default.

"confidence": confidence interval of mean response

"prediction": prediction interval of out-of-sample prediction

Default level is 0.95.

predict(delv_fit, interval = "confidence", level = .95) %>% tbl_df()

# A tibble: 25 x 3
     fit   lwr   upr
   <dbl> <dbl> <dbl>
 1 18.6  16.8   20.3
 2  9.85  7.57  12.1
 3  9.85  7.57  12.1
 4 12.0   9.91  14.1
 5 16.4  14.5   18.2
 6 18.6  16.8   20.3
 7  7.67  5.22  10.1
 8 18.6  16.8   20.3
 9 68.6  62.9   74.3
10 14.2  12.2   16.2
# … with 15 more rows
…
